CMTBC_BIN.ZIP.part1	B52FBD6A25DC0B35421C1235E63502E5
CMTBC_BIN.ZIP.part10	42A3F721A1517D4B5BB221DECB689390
CMTBC_BIN.ZIP.part11	82FABA7639690D8F29970ED67ECCAC42
CMTBC_BIN.ZIP.part12	23B3472422C8B42FA4372D19DF4C6DB4
CMTBC_BIN.ZIP.part13	F7F38103533078FB7008EFCC49A6258A
CMTBC_BIN.ZIP.part14	FAB55555EEAB85844CC4BC6AA638E899
CMTBC_BIN.ZIP.part15	5BF755C4990B64DB320B4E92F29F0F1C
CMTBC_BIN.ZIP.part16	34182867234BC54706BA14F5D64B57B9
CMTBC_BIN.ZIP.part17	A4681649CEA963E5798705BDC8D36ECD
CMTBC_BIN.ZIP.part18	59FB4A17F86911E6C23272367B25BE60
CMTBC_BIN.ZIP.part19	F522454BF952A564B6FFAAE3F9E0FC1B
CMTBC_BIN.ZIP.part2	41CA725170469EA1FF15555311801D42
CMTBC_BIN.ZIP.part20	35FBDC90D795DDAA64067B65EB11E1C4
CMTBC_BIN.ZIP.part21	5C89E71AE34F3E36F3E1464AFA452533
CMTBC_BIN.ZIP.part22	EAF9EB5A822FA1461698F9CA99E553EF
CMTBC_BIN.ZIP.part23	E34644476CB0881AAA33495686C09CC4
CMTBC_BIN.ZIP.part24	9029F76279563B16D41843871ABDEA2E
CMTBC_BIN.ZIP.part25	60587937C1722FBA6EAC01EAFADF8B1E
CMTBC_BIN.ZIP.part26	F860E0A44F6BEB9B93692075833C3836
CMTBC_BIN.ZIP.part27	2E5D15699D121FE83F6D2CD4691DEF39
CMTBC_BIN.ZIP.part28	A0BD42BD6C01C9959A226493A53CEDB5
CMTBC_BIN.ZIP.part29	705A8AE082BC25CC5BF39D2DA58FDDE5
CMTBC_BIN.ZIP.part3	7F84D46729D6209390BC46DF0195942E
CMTBC_BIN.ZIP.part30	6858C4A182BFBF0A5D02659982867F2D
CMTBC_BIN.ZIP.part31	A35075350AA9F10F6D8558F08405F819
CMTBC_BIN.ZIP.part32	3111D4348ADAB45E4DB497BF827CC361
CMTBC_BIN.ZIP.part33	B93D8834F8A5C08A2EE6321C0B0AE190
CMTBC_BIN.ZIP.part34	D5F58A8A99E62824AAFF1BCE874F8862
CMTBC_BIN.ZIP.part35	C01C32A65E40D19DCBF66CC8E6B64BFE
CMTBC_BIN.ZIP.part36	186AB238C816A6F70BB1974CC51C8B87
CMTBC_BIN.ZIP.part37	F2D4F10F0460D11E0148AFAEDB2A8A3B
CMTBC_BIN.ZIP.part38	976A8C41C387A53D17DDC23D271D9AA3
CMTBC_BIN.ZIP.part39	A39A2FEE6DCBA745D5DB5DC9F02B9C59
CMTBC_BIN.ZIP.part4	28BD491A7195345BD5753979135FEE00
CMTBC_BIN.ZIP.part40	6A464A463DF09331D5D07222E5001EB9
CMTBC_BIN.ZIP.part41	3F9DFACB5967D415BB35F5B2C99B4453
CMTBC_BIN.ZIP.part42	A72747DFA14649CAC305BB12AFD8EBFC
CMTBC_BIN.ZIP.part43	117FE77512F44331001D0D43C4D0ECBE
CMTBC_BIN.ZIP.part44	C8AFCE0B21AB90A312D59FB8B3DFC1A5
CMTBC_BIN.ZIP.part45	6747454AD0D40D2108B019AEC5A54866
CMTBC_BIN.ZIP.part46	44F4467B3EACB5F47B6D83BD062A4F96
CMTBC_BIN.ZIP.part47	F63FAB759282C547C9D6044773E85F5E
CMTBC_BIN.ZIP.part48	AE613A25C5FE36F3FFA9A4F267BC3C11
CMTBC_BIN.ZIP.part49	98ABA1B41BAD329C37CF510F911C95D2
CMTBC_BIN.ZIP.part5	9CDBE76CA116ACD2F362CAF34838DE43
CMTBC_BIN.ZIP.part50	9EA6E260ADC0C4E0B819C718FC59B080
CMTBC_BIN.ZIP.part51	04E2FDC7C3A14E831E39DC584BE97D94
CMTBC_BIN.ZIP.part52	D9DBF0C3B14478A195386EE47A1A3D99
CMTBC_BIN.ZIP.part53	86321E79A2D4141E3675127B0BE1A614
CMTBC_BIN.ZIP.part54	46EDB2C8BAEE6E19C4D15CD9D1AD68A4
CMTBC_BIN.ZIP.part55	F0F202BE012DC343C973515D55CF1F31
CMTBC_BIN.ZIP.part56	7C7C70B06F8AF6B629A8A704E48C7CC4
CMTBC_BIN.ZIP.part57	8C3E6911CB1DA72F5403515255185CEF
CMTBC_BIN.ZIP.part58	7AFEAC636F4D1EF6C3C2649AECB79072
CMTBC_BIN.ZIP.part59	65BD240ADA66E399CE114E646277971A
CMTBC_BIN.ZIP.part6	59507FAEDC7707D2DB22DA90D22450FE
CMTBC_BIN.ZIP.part60	55D4892E50687CEE7967450B09EB23E4
CMTBC_BIN.ZIP.part61	2C47D785D078250D6ACA0560EC5DE173
CMTBC_BIN.ZIP.part62	FBD552C1A5CB17D45D26F7CE2948DAD0
CMTBC_BIN.ZIP.part63	830400BF60F0E6F8CB62957D735DD290
CMTBC_BIN.ZIP.part64	542358A2116A13AFA44E3A036C254834
CMTBC_BIN.ZIP.part65	AF9B7BF1FA8EAD463A19D7B5BBB1A6CA
CMTBC_BIN.ZIP.part66	687DFE51FF2D1BD0B674EDB35EFBAF41
CMTBC_BIN.ZIP.part67	58066E540F7512367AFE93225F7FD4FE
CMTBC_BIN.ZIP.part68	156A81BFBAE74DC733CFC21B487B21A0
CMTBC_BIN.ZIP.part69	6D49FD0B90435BEDBDA2EF6D172B4464
CMTBC_BIN.ZIP.part7	B7353670FABCB4332C03CDDBF005F15D
CMTBC_BIN.ZIP.part70	99EDD1860ED185E5546A30C8B3686DD4
CMTBC_BIN.ZIP.part8	43451D578C6E4E3F85091BCD0E5E5BA9
CMTBC_BIN.ZIP.part9	DF9D282FD77E6ACCEA02701211F51341
